{
  "project_info": {
    "project_number": "14664114859",
    "firebase_url": "https://workgig.firebaseio.com",
    "project_id": "workgig",
    "storage_bucket": "workgig.appspot.com"
  },
  "client": [
    {
      "client_info": {
        "mobilesdk_app_id": "1:14664114859:android:6cbcdd9501d20a948a0dee",
        "android_client_info": {
          "package_name": "com.workgig"
        }
      },
      "oauth_client": [
        {
          "client_id": "14664114859-jn553f5fdagb926uula5r852ssd4q642.apps.googleusercontent.com",
          "client_type": 1,
          "android_info": {
            "package_name": "com.workgig",
            "certificate_hash": "92dfe1802a455de4fb11c0ef97b2c0e02b2086d9"
          }
        },
        {
          "client_id": "14664114859-3dv6rjitkgl4u724fplpom40ov2ob714.apps.googleusercontent.com",
          "client_type": 3
        }
      ],
      "api_key": [
        {
          "current_key": "AIzaSyDsU09V9ERYCpAdZm1FCq-TZS1R2sAuN8M"
        }
      ],
      "services": {
        "appinvite_service": {
          "other_platform_oauth_client": [
            {
              "client_id": "14664114859-3dv6rjitkgl4u724fplpom40ov2ob714.apps.googleusercontent.com",
              "client_type": 3
            },
            {
              "client_id": "14664114859-s5c3dp3hf9o49jrtvh27ausvti77gbff.apps.googleusercontent.com",
              "client_type": 2,
              "ios_info": {
                "bundle_id": "com.workgig.provider"
              }
            }
          ]
        }
      }
    }
  ],
  "configuration_version": "1"
}